{
  "scene" : "export/Sponza.bam",
  "behaviors" : {
    "Torch.*" : {
        "RandomMotionBehavior" : {
            "client_sync" : true,
            "kwargs" : {
                "speed_factor" : 128.0,
                "motion_scale" : 0.02,
                "offset_location" : true
            }
        },
        "SatieInfiniteBehavior" : {
            "client_sync" : true,
            "kwargs" : {
              "plugin" : "DustDust"
            }
        },
        "SatieProximityBehavior" : {
        "client_sync" : true,
        "kwargs" : {
          "plugin" : "zkarpluck1"
        }
      }
    }
  }
}
